…
```r
carpet
```

```
## # A tibble: 25 x 6
##    sample_id   age cys_acid   cys   met   tyr
##    <chr>     <dbl>    <dbl> <dbl> <dbl> <dbl>
##  1 1.1.       1750     4.39  0.97  0     0   
##  2 1.2.       1600     4.3   1.03  0     0   
##  3 1.3.       1600     4.27  1.21  0.02  0.15
##  4 1.4.       1600     4.33  1.1   0.02  0.2 
##  5 1.5.       1600     4.01  1.19  0.01  0.2 
##  6 1.6.       1550     3.99  1.22  0.03  0.3 
##  7 1.7.       1550     3.97  1.33  0.03  0.38
##  8 1.8.       1550     3.82  1.19  0.02  0.54
##  9 1.9.       1500     3.93  1.22  0.03  0.53
## 10 1.10.      1400     3.81  1.53  0.03  0.75
## # ... with 15 more rows
```
…
